[gd_scene load_steps=5 format=3 uid="uid://cpptjiywkw3xs"]

[ext_resource type="Texture2D" uid="uid://dsqa4myvdj578" path="res://Assets/random-ocean-mix/manta-ray.png" id="1_gh7mk"]

[sub_resource type="CircleShape2D" id="CircleShape2D_au52e"]
radius = 69.029

[sub_resource type="Animation" id="Animation_i2lpy"]
resource_name = "pop_up"
tracks/0/type = "value"
tracks/0/imported = false
tracks/0/enabled = true
tracks/0/path = NodePath(".:position")
tracks/0/interp = 1
tracks/0/loop_wrap = true
tracks/0/keys = {
"times": PackedFloat32Array(0, 1),
"transitions": PackedFloat32Array(1, 1),
"update": 0,
"values": [Vector2(384, 128), Vector2(384, 104)]
}

[sub_resource type="AnimationLibrary" id="AnimationLibrary_31jl3"]
_data = {
"pop_up": SubResource("Animation_i2lpy")
}

[node name="Area2D" type="Area2D"]

[node name="MantaRay" type="Sprite2D" parent="."]
position = Vector2(384, 128)
rotation = 0.719076
scale = Vector2(6.11711, 5.99324)
texture = ExtResource("1_gh7mk")

[node name="CollisionShape2D" type="CollisionShape2D" parent="."]
position = Vector2(391, 121)
shape = SubResource("CircleShape2D_au52e")

[node name="AnimationPlayer" type="AnimationPlayer" parent="."]
root_node = NodePath("../MantaRay")
libraries = {
"": SubResource("AnimationLibrary_31jl3")
}
speed_scale = 2.0
