[gd_scene load_steps=4 format=3 uid="uid://croepfpq03ort"]

[ext_resource type="Script" path="res://Scripts/mini game/pearl.gd" id="1_8htpb"]
[ext_resource type="Texture2D" uid="uid://dg4mbio3kgehe" path="res://Assets/pearl.png.png" id="1_cwra3"]

[sub_resource type="CircleShape2D" id="CircleShape2D_2vplh"]
radius = 21.095

[node name="Pearl" type="Area2D"]
script = ExtResource("1_8htpb")

[node name="Sprite2D" type="Sprite2D" parent="."]
position = Vector2(72, 49)
scale = Vector2(2.1875, 2.5)
texture = ExtResource("1_cwra3")

[node name="CollisionShape2D" type="CollisionShape2D" parent="."]
position = Vector2(72, 50)
shape = SubResource("CircleShape2D_2vplh")

[connection signal="body_entered" from="." to="." method="_on_body_entered"]
